<svg height="100" viewBox="0 0 700 700" width="100" xmlns="http://www.w3.org/2000/svg">
    <path
        d="m448.24 260.91h-5.4492c-4.25-45.031-42.234-80.383-88.352-80.383-46.121 0-84.113 35.352-88.355 80.383h-5.4531c-15.562 0-28.219 12.66-28.219 28.219v34.598c0 15.562 12.656 28.23 28.219 28.23h13.422c4.6406 0 8.3984-3.7617 8.3984-8.3984v-74.25c0-39.691 32.297-71.98 71.98-71.98 39.688 0 71.98 32.297 71.98 71.98v74.246c0 6.3008-5.1289 11.43-11.43 11.43h-26.523c-2.8398-4.5977-7.8867-7.6992-13.668-7.6992-8.875 0-16.102 7.2227-16.102 16.102 0 8.875 7.2227 16.102 16.102 16.102 5.7852 0 10.836-3.1016 13.668-7.6992h26.523c12.621 0 23.211-8.3828 26.809-19.828h6.4414c15.562 0 28.23-12.668 28.23-28.23v-34.602c.003906-15.559-12.66-28.219-28.223-28.219zm-182.59 74.246h-5.0234c-6.3008 0-11.418-5.1289-11.418-11.43v-34.598c0-6.293 5.1172-11.418 11.418-11.418h5.0234zm194.02-11.43c0 6.3008-5.1289 11.43-11.43 11.43h-5.0195v-57.445h5.0195c6.3008 0 11.43 5.125 11.43 11.418z" />
</svg>